-----BEGIN PGP SIGNATURE-----

iQEzBAABCAAdFiEElyI52+aGmfUmwGoFPhd4F7obm/oFAmRGTKEACgkQPhd4F7ob
m/qnSwgAuWhMoVpzSgAPFzq2C6x+5Nx0ACGAhIDy8ddtaZHiqmMc3BUQy9PDyNIt
NZM5qflEkdyL42ZIDb1wrlYy/Mw4JZ7GAr7yzGbWui0yvtsTF2oUyTIsZQvkxTwd
5dDS5Phy7qtvxaBhsSMh7Yq/AJqzkh/xCUkRz7hmanT6KWlcNS4YdDeprdLRpNhM
lrVmdBoP40poTM2IvztKsHs7hEywiVP2mQR12hX7eGQb6uZQnHUtnT/MgMoU2W86
vG1ddHQZzI4F9O83rV/Vw1Xs3zPhyAAmV99v1uxQi0VpFVDPPBQQLGJyNgUOH4eC
P+I455qI/8I7qcMXhJRj9aY+UJn7Yg==
=8z2t
-----END PGP SIGNATURE-----
